Book Name,Book Description,Book Weight,Book Price,School Name,Book Image,School Description,School Image
MBA MGT 688L / CONRES,"Professor: Nardia Haigh, Ph.D. (Spring 2019) .. $52.50",4,52.5,University of Massachusetts,,Nam commodo suscipit quam. Duis vel nibh at velit scelerisque suscipit. Suspendisse pulvinar,https://cpe.prowebtesting.com/wp-content/uploads/small_textbookx_logo.jpg
Financial Accounting (ACCT 3),"Professor: Patrick T. Christensen, MBA, CPA, CFP  ....  $15.00",2.5,15,Test School,https://cpe.prowebtesting.com/wp-content/uploads/Course-Packet-Fall-19-F2F_001.jpg,Aenean ut eros et nisl sagittis vestibulum. Nullam cursus lacinia erat.,https://cpe.prowebtesting.com/wp-content/uploads/cc.png
Financial Accounting: Online Classes,"Professor: Patrick T. Christensen, MBA, CPA, CFP  ….  $15.00",2.5,15,Butte College,https://cpe.prowebtesting.com/wp-content/uploads/Course-Packet-Fall-19-Online_001.jpg,Aenean ut eros et nisl sagittis vestibulum. Nullam cursus lacinia erat.,https://cpe.prowebtesting.com/wp-content/uploads/cc.png
Managerial Accounting (ACCT 6),"Face to Face classes Only Professor Elizabeth ""Beth"" Dunn  ...  $15.00",2.5,15,Butte College,https://cpe.prowebtesting.com/wp-content/uploads/Managerial-course-packet-Fall-19-dunn_001.jpg,Aenean ut eros et nisl sagittis vestibulum. Nullam cursus lacinia erat.,https://cpe.prowebtesting.com/wp-content/uploads/cc.png
